G04 Layer_Physical_Order=1*
G04 Layer_Color=255*
%FSLAX43Y43*%
%MOMM*%
G71*
G01*
G75*
%ADD10R,1.500X0.700*%
%ADD11C,0.500*%
%ADD12C,0.250*%
%ADD13O,0.700X1.500*%
%ADD14O,1.500X0.700*%
%ADD15C,1.000*%
D10*
X-4350Y4445D02*
D03*
Y3175D02*
D03*
Y1905D02*
D03*
Y-1905D02*
D03*
Y-3175D02*
D03*
Y-4445D02*
D03*
X5150Y3175D02*
D03*
Y1905D02*
D03*
Y635D02*
D03*
Y-635D02*
D03*
Y-1905D02*
D03*
D11*
X1500Y-4859D02*
Y-3680D01*
X-275Y-1905D02*
X1500Y-3680D01*
X500Y-5500D02*
Y-4500D01*
X104Y-4104D02*
X500Y-4500D01*
X-3096Y-4104D02*
X104D01*
X-3100Y-4100D02*
X-3096Y-4104D01*
X-3445Y-4445D02*
X-3100Y-4100D01*
X-4350Y1905D02*
X-3105D01*
X-2800Y1600D01*
X-2849Y3175D02*
X-1796Y2122D01*
X-2539Y361D02*
X-1796Y1104D01*
Y2122D01*
X-1000Y834D02*
Y2392D01*
X-5500Y-500D02*
X-2334D01*
X-1000Y834D01*
X-3700Y361D02*
X-2539D01*
X-4350Y3175D02*
X-2849D01*
X-3053Y4445D02*
X-1000Y2392D01*
X-4350Y4445D02*
X-3053D01*
X-3839Y500D02*
X-3700Y361D01*
X-5500Y500D02*
X-3839D01*
X-4350Y-1905D02*
X-275D01*
X-575Y-3175D02*
X-500Y-3100D01*
X-4350Y-3175D02*
X-575D01*
X-4350Y-4445D02*
X-3445D01*
D12*
X217Y2430D02*
X500Y2713D01*
X217Y383D02*
X1235Y-635D01*
X721Y1279D02*
X1600Y400D01*
X721Y1279D02*
Y2221D01*
X1675Y3175D01*
X217Y383D02*
Y2430D01*
X3895Y1905D02*
X5150D01*
X3300Y2500D02*
X3895Y1905D01*
X2300Y2500D02*
X3300D01*
X1235Y-635D02*
X5150D01*
X3865Y635D02*
X5150D01*
X2900Y1600D02*
X3865Y635D01*
X1600Y1800D02*
X2300Y2500D01*
X1675Y3175D02*
X5150D01*
X500Y2713D02*
Y5500D01*
X3200Y-1900D02*
X3205Y-1905D01*
X5150D01*
D13*
X2500Y-5500D02*
D03*
X-1500D02*
D03*
X1500Y5500D02*
D03*
X-2500Y-5500D02*
D03*
X-500D02*
D03*
X500D02*
D03*
X1500D02*
D03*
X2500Y5500D02*
D03*
X500D02*
D03*
X-500D02*
D03*
X-1500D02*
D03*
X-2500D02*
D03*
D14*
X-5500Y-500D02*
D03*
Y500D02*
D03*
D15*
X-2800Y1600D02*
D03*
X1600Y400D02*
D03*
X2900Y1600D02*
D03*
X1600Y1800D02*
D03*
X3205Y-1905D02*
D03*
X-500Y-3100D02*
D03*
M02*
