M48
;Layer_Color=9474304
;FILE_FORMAT=4:3
METRIC,LZ
;TYPE=PLATED
T1F00S00C0.500
%
T01
X-00025Y-00055
X-00015
X-00005
X00005
X00015
X00025
X0003205Y-0001905
X00016Y00004
X-00005Y-00031
X-00055Y-00005
Y00005
X-00028Y00016
X-00025Y00055
X-00015
X-00005
X00005
X00015
X00025
X00029Y00016
X00016Y00018
M30
